﻿IELTS for Academic Purpose: 6 Practice Tests
Malcolm Mann - Steve Taylore-Knowles      Mã sách: 110577N
Giá bìa: 65,000 đồng	
Giảm giá: 20,000 đồng	
Còn lại: 45,000 đồng
Số lượng còn tại cửa hàng:   983 quyển
Nhà xuất bản: Hồng Đức      
Năm xuất bản: 2012
Hình thức: Bìa mềm      
Số trang: 142      
Khổ sách: 19 x 26 cm
Trọng lượng: 320 gr    
Băng đĩa: 1